<?xml version="1.0" encoding="UTF-8" standalone="no"?>
<!-- Created with Inkscape (http://www.inkscape.org/) -->

<svg
   width="48.258915mm"
   height="138.07274mm"
   viewBox="0 0 48.258915 138.07274"
   version="1.1"
   id="svg5"
   inkscape:version="1.1 (c68e22c387, 2021-05-23)"
   sodipodi:docname="column voltage.svg"
   xmlns:inkscape="http://www.inkscape.org/namespaces/inkscape"
   xmlns:sodipodi="http://sodipodi.sourceforge.net/DTD/sodipodi-0.dtd"
   xmlns="http://www.w3.org/2000/svg"
   xmlns:svg="http://www.w3.org/2000/svg">
  <sodipodi:namedview
     id="namedview7"
     pagecolor="#000000"
     bordercolor="#666666"
     borderopacity="1.0"
     inkscape:pageshadow="2"
     inkscape:pageopacity="0"
     inkscape:pagecheckerboard="true"
     inkscape:document-units="mm"
     showgrid="false"
     inkscape:zoom="0.5"
     inkscape:cx="-190"
     inkscape:cy="473"
     inkscape:window-width="1366"
     inkscape:window-height="705"
     inkscape:window-x="-8"
     inkscape:window-y="-8"
     inkscape:window-maximized="1"
     inkscape:current-layer="layer1"
     fit-margin-top="0"
     fit-margin-left="0"
     fit-margin-right="0"
     fit-margin-bottom="0"
     lock-margins="false"
     height="122.8701mm" />
  <defs
     id="defs2" />
  <g
     inkscape:label="Слой 1"
     inkscape:groupmode="layer"
     id="layer1"
     transform="translate(-56.26415,-29.744239)">
    <rect
       style="fill:#b3b3b3;fill-rule:evenodd;stroke-width:0.203887"
       id="rect31"
       width="30"
       height="120"
       x="58.264584"
       y="40" />
    <path
       style="fill:#ffffff;stroke:#ffffff;stroke-width:0.281671px;stroke-linecap:butt;stroke-linejoin:miter;stroke-opacity:1"
       d="M 90.264583,40 H 56.26415 v 0"
       id="path1170" />
    <path
       style="fill:#ffffff;stroke:#ffffff;stroke-width:0.281671px;stroke-linecap:butt;stroke-linejoin:miter;stroke-opacity:1"
       d="M 90.265016,50.140835 H 56.264583 v 0"
       id="path1170-7" />
    <path
       style="fill:#ffffff;stroke:#ffffff;stroke-width:0.281671px;stroke-linecap:butt;stroke-linejoin:miter;stroke-opacity:1"
       d="M 90.265016,60.140835 H 56.264583 v 0"
       id="path1170-1" />
    <path
       style="fill:#ffffff;stroke:#ffffff;stroke-width:0.281671px;stroke-linecap:butt;stroke-linejoin:miter;stroke-opacity:1"
       d="M 90.265016,70.140835 H 56.264583 v 0"
       id="path1170-8" />
    <path
       style="fill:#ffffff;stroke:#ffffff;stroke-width:0.281671px;stroke-linecap:butt;stroke-linejoin:miter;stroke-opacity:1"
       d="M 90.265016,80.140835 H 56.264583 v 0"
       id="path1170-17" />
    <path
       style="fill:#ffffff;stroke:#ffffff;stroke-width:0.281671px;stroke-linecap:butt;stroke-linejoin:miter;stroke-opacity:1"
       d="M 90.265016,90.140835 H 56.264583 v 0"
       id="path1170-3" />
    <path
       style="fill:#ffffff;stroke:#ffffff;stroke-width:0.281671px;stroke-linecap:butt;stroke-linejoin:miter;stroke-opacity:1"
       d="M 90.265016,100.14084 H 56.264583 v 0"
       id="path1170-0" />
    <path
       style="fill:#ffffff;stroke:#ffffff;stroke-width:0.281671px;stroke-linecap:butt;stroke-linejoin:miter;stroke-opacity:1"
       d="M 90.265016,110.14084 H 56.264583 v 0"
       id="path1170-76" />
    <path
       style="fill:#ffffff;stroke:#ffffff;stroke-width:0.281671px;stroke-linecap:butt;stroke-linejoin:miter;stroke-opacity:1"
       d="M 90.265016,120.14084 H 56.264583 v 0"
       id="path1170-6" />
    <path
       style="fill:#ffffff;stroke:#ffffff;stroke-width:0.281671px;stroke-linecap:butt;stroke-linejoin:miter;stroke-opacity:1"
       d="M 90.265016,130.14084 H 56.264583 v 0"
       id="path1170-70" />
    <path
       style="fill:#ffffff;stroke:#ffffff;stroke-width:0.281671px;stroke-linecap:butt;stroke-linejoin:miter;stroke-opacity:1"
       d="M 90.265016,140.14084 H 56.264583 v 0"
       id="path1170-78" />
    <path
       style="fill:#ffffff;stroke:#ffffff;stroke-width:0.281671px;stroke-linecap:butt;stroke-linejoin:miter;stroke-opacity:1"
       d="M 90.265016,150.14084 H 56.264583 v 0"
       id="path1170-4" />
    <path
       style="fill:#ffffff;stroke:#ffffff;stroke-width:0.281671px;stroke-linecap:butt;stroke-linejoin:miter;stroke-opacity:1"
       d="M 90.265016,160.14084 H 56.264583 v 0"
       id="path1170-81" />
    <rect
       style="fill:#0000fe;fill-opacity:1;stroke:none;stroke-width:2.49768;stroke-opacity:1"
       id="rect3005"
       width="30"
       height="90"
       x="58.264149"
       y="69.859169" />
    <text
       xml:space="preserve"
       style="font-style:normal;font-weight:normal;font-size:7.76111px;line-height:1.25;font-family:sans-serif;fill:#ffffff;fill-opacity:1;stroke:none;stroke-width:0.264583"
       x="92.752548"
       y="162.61937"
       id="text36096"><tspan
         sodipodi:role="line"
         id="tspan36094"
         style="font-size:7.76111px;fill:#ffffff;stroke-width:0.264583"
         x="92.752548"
         y="162.61937">0</tspan></text>
    <text
       xml:space="preserve"
       style="font-style:normal;font-weight:normal;font-size:7.76111px;line-height:1.25;font-family:sans-serif;fill:#ffffff;fill-opacity:1;stroke:none;stroke-width:0.264583"
       x="92.411484"
       y="132.61937"
       id="text41406"><tspan
         sodipodi:role="line"
         id="tspan41404"
         style="font-size:7.76111px;fill:#ffffff;stroke-width:0.264583"
         x="92.411484"
         y="132.61937">1.0</tspan></text>
    <text
       xml:space="preserve"
       style="font-style:normal;font-weight:normal;font-size:7.76111px;line-height:1.25;font-family:sans-serif;fill:#ffffff;fill-opacity:1;stroke:none;stroke-width:0.264583"
       x="92.695709"
       y="102.61936"
       id="text44132"><tspan
         sodipodi:role="line"
         id="tspan44130"
         style="font-size:7.76111px;fill:#ffffff;stroke-width:0.264583"
         x="92.695709"
         y="102.61936">2.0</tspan></text>
    <text
       xml:space="preserve"
       style="font-style:normal;font-weight:normal;font-size:7.76111px;line-height:1.25;font-family:sans-serif;fill:#ffffff;fill-opacity:1;stroke:none;stroke-width:0.264583"
       x="92.672966"
       y="72.61937"
       id="text45850"><tspan
         sodipodi:role="line"
         id="tspan45848"
         style="font-size:7.76111px;fill:#ffffff;stroke-width:0.264583"
         x="92.672966"
         y="72.61937">3.0</tspan></text>
    <text
       xml:space="preserve"
       style="font-style:normal;font-weight:normal;font-size:7.76111px;line-height:1.25;font-family:sans-serif;fill:#ffffff;fill-opacity:1;stroke:none;stroke-width:0.264583"
       x="66.32502"
       y="35.402119"
       id="text977"><tspan
         sodipodi:role="line"
         id="tspan975"
         style="font-size:7.76111px;fill:#ffffff;stroke-width:0.264583"
         x="66.32502"
         y="35.402119">Uкс</tspan></text>
    <text
       xml:space="preserve"
       style="font-style:normal;font-weight:normal;font-size:7.76111px;line-height:1.25;font-family:sans-serif;fill:#ffffff;fill-opacity:1;stroke:none;stroke-width:0.264583"
       x="61.40839"
       y="167.70708"
       id="text5849"><tspan
         sodipodi:role="line"
         id="tspan5847"
         style="font-size:7.76111px;fill:#ffffff;stroke-width:0.264583"
         x="61.40839"
         y="167.70708">3.0 кВ</tspan></text>
  </g>
</svg>
